<svg width="16" height="2" viewBox="0 0 16 2" fill="none" xmlns="http://www.w3.org/2000/svg">
<path d="M0.909983 0.422518L7.42715 0.426447H8.53495L15.0482 0.426449C15.1877 0.437242 15.318 0.500281 15.413 0.602967C15.5081 0.705654 15.5609 0.840424 15.5609 0.980349C15.5609 1.12027 15.5081 1.25504 15.413 1.35773C15.318 1.46042 15.1877 1.52346 15.0482 1.53425L8.53495 1.53425H7.42715L0.909983 1.53818C0.762038 1.53818 0.620152 1.4794 0.515538 1.37479C0.410925 1.27018 0.352154 1.12829 0.352154 0.980347C0.352154 0.832401 0.410925 0.690515 0.515538 0.585902C0.620151 0.481289 0.762037 0.422518 0.909983 0.422518Z" fill="black"/>
</svg>
