<svg width="512px" height="374px" viewBox="0 0 512 374" version="1.1" xmlns="http://www.w3.org/2000/svg" xmlns:xlink="http://www.w3.org/1999/xlink">
    <g id="Page-1" stroke="none" stroke-width="1" fill="none" fill-rule="evenodd">
        <g id="repeat" fill="#006400" fill-rule="nonzero">
            <path d="M69.816,187 L0,187 L93.096,280.096 L186.2,187 L116.384,187 C116.608,109.984 178.984,47.6 256,47.368 C278.672,47.8 300.952,53.368 321.16,63.664 L356.056,28.768 C325.6,11.144 291.176,1.528 256,0.832 C153.296,1.112 70.104,84.296 69.816,187 Z M395.616,187 C395.392,264.016 333.016,326.4 256,326.632 C233.328,326.2 211.048,320.632 190.84,310.336 L155.944,345.232 C186.4,362.856 220.824,372.472 256,373.168 C358.696,372.872 441.88,289.696 442.184,187 L512,187 L418.904,93.904 L325.8,187 L395.616,187 Z" id="Shape"></path>
        </g>
    </g>
</svg>
